<svg width="1" height="502" viewBox="0 0 1 502" xmlns="http://www.w3.org/2000/svg">
  <path d="M88.5,0.468494654 L88.5,502.535858"
        transform="translate(-515.000000, -1478.000000) translate(0.000000, 608.000000) translate(250.000000, 2.000000) translate(177.000000, 868.000000)"
        stroke-linecap="square" stroke="#d8d8d8" stroke-dasharray="3" fill="none" fill-rule="evenodd"/>
</svg>
